brms
…
---

```r
fit3_f %>% 
spread_draws(`b_age_14`, r_id[id,])
```

```
## # A tibble: 656,000 x 6
## # Groups:   id [82]
##    .chain .iteration .draw b_age_14    id    r_id
##     <int>      <int> <int>    <dbl> <int>   <dbl>
##  1      1          1     1    0.298     1 -0.479 
##  2      1          1     1    0.298     1  0.813 
##  3      1          1     1    0.298     2  0.497 
##  4      1          1     1    0.298     2 -0.782 
##  5      1          1     1    0.298     3  0.0151
##  6      1          1     1    0.298     3  0.591 
##  7      1          1     1    0.298     4  0.164 
##  8      1          1     1    0.298     4 -0.633 
##  9      1          1     1    0.298     5 -0.322 
## 10      1          1     1    0.298     5 -0.871 
## # … with 655,990 more rows
```

---

```r
fit3_f %>% 
spread_draws(`b_age_14`, r_id[id,]) %>% 
   median_qi(slope_mean = b_age_14 + r_id) 
```

```
## # A tibble: 82 x 7
##       id slope_mean .lower .upper .width .point .interval
##    <int>      <dbl>  <dbl>  <dbl>  <dbl> <chr>  <chr>    
##  1     1     0.494  -0.172  1.45    0.95 median qi       
##  2     2    -0.0163 -1.16   0.790   0.95 median qi       
##  3     3     0.652  -0.140  1.36    0.95 median qi       
##  4     4     0.328  -0.622  1.04    0.95 median qi       
##  5     5    -0.171  -1.22   0.567   0.95 median qi       
##  6     6     0.879  -0.108  2.31    0.95 median qi       
##  7     7     0.380  -0.400  1.50    0.95 median qi       
##  8     8    -0.177  -1.22   0.572   0.95 median qi       
##  9     9     0.484  -0.837  1.46    0.95 median qi       
## 10    10     0.174  -0.530  0.846   0.95 median qi       
## # … with 72 more rows
```
…
