Applied Longitudinal Data Analysis: Working with data
…
pivot_wider

The pivot_wider() function takes two arguments: names_from which is the variable whose values will be converted to column names and values_from whose values will be cell values.

# A tibble: 91 x 6
      ID group    `1`    `2`    `3`   `4`
   <int> <chr>  <dbl>  <dbl>  <dbl> <dbl>
 1     6 PD    0.162  0.168   0.215    NA
 2    29 PD    0.175  0.136  NA        NA
 3    34 CTRL  0.166  0.140  NA        NA
 4    36 CTRL  0.152  0.205  NA        NA
 5    37 PD    0.219  0.158   0.259    NA
 6    48 PD    0.130  0.270   0.248    NA
 7    53 CTRL  0.211  0.152  NA        NA
 8    54 PD    0.220  0.152   0.192    NA
 9    58 PD    0.380  0.215   0.204    NA
10    61 PD    0.0818 0.0628 NA        NA
#  with 81 more rows

pivot_longer

Going back to long:

The pivot_longer function takes three arguments: cols is a list of columns that are to be collapsed. The columns can be referenced by column number or column name. names_to is the name of the new column which will combine all column names. This is up to you to decide what the name is. values_to is the name of the new column which will combine all column values associated with each variable combination.

# A tibble: 364 x 4
      ID group wave     DAN
   <int> <chr> <chr>  <dbl>
 1     6 PD    1      0.162
 2     6 PD    2      0.168
 3     6 PD    3      0.215
 4     6 PD    4     NA    
 5    29 PD    1      0.175
 6    29 PD    2      0.136
 7    29 PD    3     NA    
 8    29 PD    4     NA    
 9    34 CTRL  1      0.166
10    34 CTRL  2      0.140
#  with 354 more rows
…
new_name: This is a column that brings together much of the information weve already collected. Its purpose is to be the new name that we will give to the variable that is more useful and descriptive to us. This is a constructed variable that brings together others. I like to make it a combination of category, label, item_name, and year using varying combos of "_" and . that we can use later with tidyverse functions. I typically construct this variable in Excel using the CONCATENATE() function, but it could also be done in R. The reason I do it in Excel is that it makes it easier for someone who may be reviewing my codebook.

There is a separate discussion to be had on naming conventions for your variables, but the important idea to remember is that names convey important information and we want to use this information later on to make our life easier. By coding these variables using this information AND systematically using different separators we can accomplish this goal.

meta: Some datasets have a meta name, which essentially means a name that variable has across all waves to make it clear which variables are the same. They are not always useful as some data sets have meta names but no great way of extracting variables using them. But theyre still typically useful to include in your codebook regardless.

These are just suggestions, but after working with many longitudinal datasets I will say all of them are horrible in some way. Doing this makes them less horrible. Is it some upfront work? Yes. Will it ultimately save you time? Yes. Also, if you know this prior to runnign a study you are making some sort of code book anyways, right, right? Might as well kill two birds with one stone.

You can make the codebook anyway you want, but the two best options are miscrosoft excel and google pages. Not because they are necessarily the best functioning but because they are relatively ubiquitous and are easy to share.

We will create a codebook but then bring the codebook into R via turning it into a csv. You can rethink the codebook as a way of coding prior to putting anything into R.

Below, Ill load in the codebook we will use for this study, which will include all of the above columns.

# A tibble: 153 x 13
   dataset old_name item_text scale category label item_name  year
   <chr>   <chr>    <chr>     <chr> <chr>    <chr> <chr>     <dbl>
 1 <NA>    persnr   Never Ch  <NA> Procedu <NA>  SID           0
 2 <NA>    hhnr     househol  <NA> Procedu <NA>  household     0
 3 ppfad   gebjahr  Year of  "num Demogra <NA>  DOB           0
 4 ppfad   sex      Sex       "\n1 Demogra <NA>  Sex           0
 5 vp      vp12501  Thorough  <NA> Big 5    C     thorough   2005
 6 zp      zp12001  Thorough  <NA> Big 5    C     thorough   2009
 7 bdp     bdp15101 Thorough  <NA> Big 5    C     thorough   2013
 8 vp      vp12502  Am commu  <NA> Big 5    E     communic   2005
 9 zp      zp12002  Am commu  <NA> Big 5    E     communic   2009
10 bdp     bdp15102 Am commu  <NA> Big 5    E     communic   2013
#  with 143 more rows, and 5 more variables: new_name <chr>,
#   reverse <dbl>, mini <dbl>, maxi <dbl>, recode <chr>

Data

First, we need to load in the data. Were going to use three waves of data from the German Socioeconomic Panel Study, which is a longitudinal study of German households that has been conducted since 1984. Were going to use more recent data from three waves of personality data collected between 2005 and 2013.

Note: we will be using the teaching set of the GSOEP data set. I will not be pulling from the raw files as a result of this. I will also not be mirroring the format that you would usually load the GSOEP from because that is slightly more complicated and somethng we will return to in a later tutorial after we have more skills. Ive left that code for now, but it wont make a lot of sense right now.

This code below shows how I would read in and rename a wide-format data set using the codebook I created.

# A tibble: 28,290 x 153
   Procedural__SID Procedural__hou Demographic__DOB Demographic__Sex
             <dbl>            <dbl>            <dbl>            <dbl>
 1             901               94             1951                2
 2            1202              124             1913                2
 3            2301              230             1946                1
 4            2302              230             1946                2
 5            2304              230             1978                1
 6            2305              230             1946                2
 7            4601              469             1933                2
 8            4701              477             1919                2
 9            4901              493             1925                2
10            5201              523             1955                1
#  with 28,280 more rows, and 149 more variables: `Big
#   5__C_thorough.2005` <dbl>, `Big 5__C_thorough.2009` <dbl>, `Big
#   5__C_thorough.2013` <dbl>, `Big 5__E_communic.2005` <dbl>, `Big
#   5__E_communic.2009` <dbl>, `Big 5__E_communic.2013` <dbl>, `Big
#   5__A_coarse.2005` <dbl>, `Big 5__A_coarse.2009` <dbl>, `Big
#   5__A_coarse.2013` <dbl>, `Big 5__O_original.2005` <dbl>, `Big
#   5__O_original.2009` <dbl>, `Big 5__O_original.2013` <dbl>, `Big
#   5__N_worry.2005` <dbl>, `Big 5__N_worry.2009` <dbl>, `Big
#   5__N_worry.2013` <dbl>, `Big 5__A_forgive.2005` <dbl>, `Big
…
Many of the data we work with have observations that are missing for a variety of reasons. In R, we treat missing values as NA, but many other programs from which you may be importing your data may use other codes (e.g.999, -999, etc.). Large panel studies tend to use small negative values to indicate different types of missingness. This is why it is important to note down the scale in your codebook. That way you can check which values may need to be recoded to explicit NA values.

In the GSOEP, -1 to -7 indicate various types of missing values, so we will recode these to NA. To do this, we will use mapvalues(), from the plyr package. In later tutorials where we read in and manipulate more complex data sets, we will use mapvalues() a lot.

Below we are taking the dataset soep and saying we are going to mutate all of our variables, making sure they are all numeric (as the code expects numeric), then we get to the mapvalues function:

mapvalues takes 3 key arguments: (1) the variable you are recoding. Below that is indicated by . which is shorthand for the data that was piped in.

a vector of initial values from which you want to change. Here we indicae a sequence of values from -1 to -7, which correspond to the missing values used by GSOEP. Other datasets may use -999, for example.

recode your values in (2) to new values in the same order as the old values. Here we have NA (the way R treats missing data) repeated 7 times (to correspond to -1, -2,)

It is also helpful to turn off warnings if some levels are not in your data (warn_missing = F).

# A tibble: 28,290 x 153
   Procedural__SID Procedural__hou Demographic__DOB Demographic__Sex
             <dbl>            <dbl>            <dbl>            <dbl>
 1             901               94             1951                2
 2            1202              124             1913                2
 3            2301              230             1946                1
 4            2302              230             1946                2
 5            2304              230             1978                1
 6            2305              230             1946                2
 7            4601              469             1933                2
 8            4701              477             1919                2
 9            4901              493             1925                2
10            5201              523             1955                1
#  with 28,280 more rows, and 149 more variables: `Big
#   5__C_thorough.2005` <dbl>, `Big 5__C_thorough.2009` <dbl>, `Big
#   5__C_thorough.2013` <dbl>, `Big 5__E_communic.2005` <dbl>, `Big
#   5__E_communic.2009` <dbl>, `Big 5__E_communic.2013` <dbl>, `Big
#   5__A_coarse.2005` <dbl>, `Big 5__A_coarse.2009` <dbl>, `Big
#   5__A_coarse.2013` <dbl>, `Big 5__O_original.2005` <dbl>, `Big
#   5__O_original.2009` <dbl>, `Big 5__O_original.2013` <dbl>, `Big
#   5__N_worry.2005` <dbl>, `Big 5__N_worry.2009` <dbl>, `Big
#   5__N_worry.2013` <dbl>, `Big 5__A_forgive.2005` <dbl>, `Big
…
Reverse-Scoring

Many scales we use have items that are positively or negatively keyed. High ratings on positively keyed items are indicative of being high on a construct. In contrast, high ratings on negatively keyed items are indicative of being low on a construct. Thus, to create the composite scores of constructs we often use, we must first reverse the negatively keyed items so that high scores indicate being higher on the construct.

There are a few ways to do this in R. Below, Ill demonstrate how to do so using the reverse.code() function in the psych package in R. This function was built to make reverse coding more efficient (i.e.please dont run every item that needs to be recoded with separate lines of code!!).

Before we can do that, though, we need to restructure the data a bit in order to bring in the reverse coding information from our codebook.

# A tibble: 28,290 x 153
   Procedural__SID Procedural__hou Demographic__DOB Demographic__Sex
             <dbl>            <dbl>            <dbl>            <dbl>
 1             901               94             1951                2
 2            1202              124             1913                2
 3            2301              230             1946                1
 4            2302              230             1946                2
 5            2304              230             1978                1
 6            2305              230             1946                2
 7            4601              469             1933                2
 8            4701              477             1919                2
 9            4901              493             1925                2
10            5201              523             1955                1
#  with 28,280 more rows, and 149 more variables: `Big
#   5__C_thorough.2005` <dbl>, `Big 5__C_thorough.2009` <dbl>, `Big
#   5__C_thorough.2013` <dbl>, `Big 5__E_communic.2005` <dbl>, `Big
#   5__E_communic.2009` <dbl>, `Big 5__E_communic.2013` <dbl>, `Big
#   5__A_coarse.2005` <dbl>, `Big 5__A_coarse.2009` <dbl>, `Big
#   5__A_coarse.2013` <dbl>, `Big 5__O_original.2005` <dbl>, `Big
#   5__O_original.2009` <dbl>, `Big 5__O_original.2013` <dbl>, `Big
#   5__N_worry.2005` <dbl>, `Big 5__N_worry.2009` <dbl>, `Big
#   5__N_worry.2013` <dbl>, `Big 5__A_forgive.2005` <dbl>, `Big
…
Bring the wide dataset to long

# A tibble: 471,722 x 6
   Procedural__SID Procedural__hou Demographic__DOB Demographic__Sex
             <dbl>            <dbl>            <dbl>            <dbl>
 1             901               94             1951                2
 2             901               94             1951                2
 3             901               94             1951                2
 4             901               94             1951                2
 5             901               94             1951                2
 6             901               94             1951                2
 7             901               94             1951                2
 8             901               94             1951                2
 9             901               94             1951                2
10             901               94             1951                2
#  with 471,712 more rows, and 2 more variables: item <chr>,
#   value <dbl>

Bring in the codebook relevent items for reverse coding

# A tibble: 471,722 x 9
   Procedural__SID Procedural__hou Demographic__DOB Demographic__Sex
             <dbl>            <dbl>            <dbl>            <dbl>
 1             901               94             1951                2
 2             901               94             1951                2
 3             901               94             1951                2
 4             901               94             1951                2
 5             901               94             1951                2
 6             901               94             1951                2
 7             901               94             1951                2
 8             901               94             1951                2
 9             901               94             1951                2
10             901               94             1951                2
#  with 471,712 more rows, and 5 more variables: item <chr>,
#   value <dbl>, reverse <dbl>, mini <dbl>, maxi <dbl>

Here we want to break our item column up into different components to assist with different calculations. Often you will have some sort of heirachy of variables where items are nested within scales which are nested within questionnaires. This is where you can code that information.

# A tibble: 471,722 x 12
   Procedural__SID Procedural__hou Demographic__DOB Demographic__Sex
             <dbl>            <dbl>            <dbl>            <dbl>
 1             901               94             1951                2
 2             901               94             1951                2
 3             901               94             1951                2
 4             901               94             1951                2
 5             901               94             1951                2
 6             901               94             1951                2
 7             901               94             1951                2
 8             901               94             1951                2
 9             901               94             1951                2
10             901               94             1951                2
#  with 471,712 more rows, and 8 more variables: type <chr>,
#   trait <chr>, item <chr>, year <chr>, value <dbl>, reverse <dbl>,
#   mini <dbl>, maxi <dbl>

now it is ready to reverse code!

# A tibble: 471,722 x 12
   Procedural__SID Procedural__hou Demographic__DOB Demographic__Sex
             <dbl>            <dbl>            <dbl>            <dbl>
 1             901               94             1951                2
 2             901               94             1951                2
 3             901               94             1951                2
 4             901               94             1951                2
 5             901               94             1951                2
 6             901               94             1951                2
 7             901               94             1951                2
 8             901               94             1951                2
 9             901               94             1951                2
10             901               94             1951                2
#  with 471,712 more rows, and 8 more variables: type <chr>,
#   trait <chr>, item <chr>, year <chr>, value <dbl>, reverse <dbl>,
#   mini <dbl>, maxi <dbl>
Create Composites

Now that we have reverse coded our items, we can create composites.

BFI-S

Well start with our scale  in this case, the Big 5 from the German translation of the BFI-S.

Heres the simplest way, which is also the long way because youd have to do it for each scale, in each year, which I dont recommend as that will be MANY MANY lines of code.

We can use our codebook and dplyr to make our lives a whole lot easier. In general, trying to run everything simultanously saves from copy-paste errors, makes your code more readable, and reduces the total amount of code. So while the below code may not make intuiative sense immediately, it is nonetheless what we are working towards. Also, going through line by line will help you see that

First, make sure we are only working with Big Five rows. Notice how once we filter the row size decreases.

# A tibble: 452,104 x 12
   Procedural__SID Procedural__hou Demographic__DOB Demographic__Sex
             <dbl>            <dbl>            <dbl>            <dbl>
 1             901               94             1951                2
 2             901               94             1951                2
 3             901               94             1951                2
 4             901               94             1951                2
 5             901               94             1951                2
 6             901               94             1951                2
 7             901               94             1951                2
 8             901               94             1951                2
 9             901               94             1951                2
10             901               94             1951                2
#  with 452,094 more rows, and 8 more variables: type <chr>,
#   trait <chr>, item <chr>, year <chr>, value <dbl>, reverse <dbl>,
#   mini <dbl>, maxi <dbl>

# A tibble: 151,186 x 4
# Groups:   Procedural__SID, trait [83,572]
   Procedural__SID trait year  value
             <dbl> <chr> <chr> <dbl>
 1             901 A     2005   4.67
 2             901 A     2009   5   
 3             901 A     2013   4.67
 4             901 C     2005   5   
 5             901 C     2009   5   
 6             901 C     2013   5.67
 7             901 E     2005   3.67
 8             901 E     2009   3.67
 9             901 E     2013   3.67
10             901 N     2005   3.33
#  with 151,176 more rows

Now that we have our means we can bring the demographic info back into the dataframeor whatever else you would want to bring in.

# A tibble: 151,186 x 6
   Procedural__SID trait year  value   DOB   Sex
             <dbl> <chr> <chr> <dbl> <dbl> <dbl>
 1             901 A     2005   4.67  1951     2
 2             901 A     2009   5     1951     2
 3             901 A     2013   4.67  1951     2
 4             901 C     2005   5     1951     2
 5             901 C     2009   5     1951     2
 6             901 C     2013   5.67  1951     2
 7             901 E     2005   3.67  1951     2
 8             901 E     2009   3.67  1951     2
 9             901 E     2013   3.67  1951     2
10             901 N     2005   3.33  1951     2
#  with 151,176 more rows
…
