Applied Longitudinal Data Analysis: plotting
…
Note that this is a range of OBSERVED values! Not values we think we may be interested in ala ggpredict.

This would work for simple regression models. But we dont have simple models. Even though we have only one predictor we still have another variable in our model, our person variable.

long.1 %>% 
  data_grid(age0 = seq_range(age0, n = 10), PROC_CID)

# A tibble: 9,240 x 2
    age0 PROC_CID
   <dbl>    <dbl>
 1    -2     1601
 2    -2     9102
 3    -2     9501
 4    -2     9502
 5    -2     9503
 6    -2    10001
 7    -2    12802
 8    -2    13801
 9    -2    14302
10    -2    17502
#  with 9,230 more rows

long.1 %>% 
  data_grid(age0 = seq_range(age0, n = 10), PROC_CID)%>% 
    add_predictions(sens.1)

# A tibble: 9,240 x 3
    age0 PROC_CID  pred
   <dbl>    <dbl> <dbl>
 1    -2     1601  3.12
 2    -2     9102  3.01
 3    -2     9501  2.94
 4    -2     9502  2.94
 5    -2     9503  2.91
 6    -2    10001  2.91
 7    -2    12802  3.02
 8    -2    13801  3.02
 9    -2    14302  3.21
10    -2    17502  2.84
#  with 9,230 more rows
…
  group_ids <- data %>% 
    group_by(!!! dots) %>% 
    group_indices()
  
  sampled_groups <- sample(unique(group_ids), size)
  
  data %>% 
    filter(group_ids %in% sampled_groups)
}

sens.1 %>%
  augment() 

# A tibble: 2,084 x 14
   SensSeek  age0 PROC_CID .fitted  .resid  .hat .cooksd .fixed   .mu
      <dbl> <dbl>    <dbl>   <dbl>   <dbl> <dbl>   <dbl>  <dbl> <dbl>
 1     3.67     0     1601    3.10  0.563  0.301 0.516     2.75  3.10
 2     3        2     1601    3.09 -0.0857 0.301 0.0120    2.74  3.09
 3     3.33     0     9102    3.00  0.335  0.422 0.375     2.75  3.00
 4     3       -2     9501    2.94  0.0637 0.283 0.00591   2.77  2.94
 5     3        2     9501    2.92  0.0805 0.229 0.00661   2.74  2.92
 6     3        6     9501    2.90  0.0973 0.305 0.0158    2.72  2.90
 7     3       -2     9502    2.94  0.0632 0.261 0.00504   2.77  2.94
 8     3        0     9502    2.93  0.0748 0.231 0.00577   2.75  2.93
 9     3        4     9502    2.90  0.0980 0.274 0.0132    2.73  2.90
10     3        0     9503    2.90  0.0950 0.307 0.0153    2.75  2.90
#  with 2,074 more rows, and 5 more variables: .offset <dbl>,
#   .sqrtXwt <dbl>, .sqrtrwt <dbl>, .weights <dbl>, .wtres <dbl>
…
modelr

long.1 %>% 
  data_grid(age0 = seq_range(age0, n = 10), PROC_CID,.model = long.1) %>% 
  add_predictions(sens.1) 

# A tibble: 9,240 x 11
    age0 PROC_CID   age  year groups  CESD SensSeek DemPweight  wave
   <dbl>    <dbl> <dbl> <dbl> <chr>  <dbl>    <dbl>      <dbl> <dbl>
 1    -2     1601    18  2004 Jail   0.571     2.67      0.695     8
 2    -2     9102    18  2004 Jail   0.571     2.67      0.695     8
 3    -2     9501    18  2004 Jail   0.571     2.67      0.695     8
 4    -2     9502    18  2004 Jail   0.571     2.67      0.695     8
 5    -2     9503    18  2004 Jail   0.571     2.67      0.695     8
 6    -2    10001    18  2004 Jail   0.571     2.67      0.695     8
 7    -2    12802    18  2004 Jail   0.571     2.67      0.695     8
 8    -2    13801    18  2004 Jail   0.571     2.67      0.695     8
 9    -2    14302    18  2004 Jail   0.571     2.67      0.695     8
10    -2    17502    18  2004 Jail   0.571     2.67      0.695     8
#  with 9,230 more rows, and 2 more variables: ID <chr>, pred <dbl>
…
Bootstrapping

As you will see I am a Bayesian estimation fanatic, and that method is much easier (and correct!) than either bootstrapping or hand calculations. Buuuut, now isnt the right time for that. We could use the predictInterval function from merTools. It doesnt work nicely with modelr though, soo we will use the bootstrap function from modelr.

Of coures the bootsrap function is a little extra. Whereas the predictInterval takes sample statistics and bootstraps them, we are going to BOOTSTRAP THE ENTIRE SAMPLE. Be warned if you have BIG datasets.

boot.tmp <- long.1  %>%
  dplyr::select(age0, PROC_CID, SensSeek) 

  boot2<- modelr::bootstrap(boot.tmp, 100) 
  boot2

# A tibble: 100 x 2
   strap      .id  
   <list>     <chr>
 1 <resample> 001  
 2 <resample> 002  
 3 <resample> 003  
 4 <resample> 004  
 5 <resample> 005  
 6 <resample> 006  
 7 <resample> 007  
 8 <resample> 008  
 9 <resample> 009  
10 <resample> 010  
#  with 90 more rows

We now have 100 samples of our dataset. Think of these as possible datasets if we would go out and collect this study again. Cool huh?

Okay, now with all of these 100 dataset we are going to run a mlm. We are going to loop through those using the map function from purrr, given that we are working in list columns.

boot.results<- boot2 %>% 
  group_by(.id) %>% 
  mutate(models = map(strap, ~lmer(SensSeek ~ 1 + age0 + (age0 | PROC_CID), data = .)),
         results = map(models, broom.mixed::tidy),
         fits = map(models, broom.mixed::augment))

boot.results

# A tibble: 100 x 5
# Groups:   .id [100]
   strap      .id   models    results          fits                 
   <list>     <chr> <list>    <list>           <list>               
 1 <resample> 001   <lmerMod> <tibble [6  6]> <tibble [2,084  14]>
 2 <resample> 002   <lmerMod> <tibble [6  6]> <tibble [2,084  14]>
 3 <resample> 003   <lmerMod> <tibble [6  6]> <tibble [2,084  14]>
 4 <resample> 004   <lmerMod> <tibble [6  6]> <tibble [2,084  14]>
 5 <resample> 005   <lmerMod> <tibble [6  6]> <tibble [2,084  14]>
 6 <resample> 006   <lmerMod> <tibble [6  6]> <tibble [2,084  14]>
 7 <resample> 007   <lmerMod> <tibble [6  6]> <tibble [2,084  14]>
 8 <resample> 008   <lmerMod> <tibble [6  6]> <tibble [2,084  14]>
 9 <resample> 009   <lmerMod> <tibble [6  6]> <tibble [2,084  14]>
10 <resample> 010   <lmerMod> <tibble [6  6]> <tibble [2,084  14]>
#  with 90 more rows

boot.results %>%
 unnest(results) 

# A tibble: 600 x 10
# Groups:   .id [100]
   strap .id   models effect group term  estimate std.error statistic
   <lis> <chr> <list> <chr>  <chr> <chr>    <dbl>     <dbl>     <dbl>
 1 <res 001   <lmer fixed  <NA>  (Int  2.76      0.0201     137.  
 2 <res 001   <lmer fixed  <NA>  age0  -0.00609   0.00553     -1.10
 3 <res 001   <lmer ran_p PROC sd__  0.494    NA           NA   
 4 <res 001   <lmer ran_p PROC cor_ -0.368    NA           NA   
 5 <res 001   <lmer ran_p PROC sd__  0.105    NA           NA   
 6 <res 001   <lmer ran_p Resi sd__  0.242    NA           NA   
 7 <res 002   <lmer fixed  <NA>  (Int  2.77      0.0208     133.  
 8 <res 002   <lmer fixed  <NA>  age0  -0.00945   0.00516     -1.83
 9 <res 002   <lmer ran_p PROC sd__  0.511    NA           NA   
10 <res 002   <lmer ran_p PROC cor_ -0.331    NA           NA   
#  with 590 more rows, and 1 more variable: fits <list>

params_boot <- boot.results %>%
 unnest(results) %>% 
  dplyr::select(.id, effect, term, estimate ) %>% 
  filter(effect=="fixed") %>% 
  pivot_wider(names_from = term, values_from = estimate)

boot.results %>%
 unnest(fits) 

# A tibble: 208,400 x 18
# Groups:   .id [100]
   strap .id   models results SensSeek  age0 PROC_CID .fitted   .resid
   <lis> <chr> <list> <list>     <dbl> <dbl>    <dbl>   <dbl>    <dbl>
 1 <res 001   <lmer <tibbl     3       -2    10001    2.98  0.0207 
 2 <res 001   <lmer <tibbl     2        8   498102    1.98  0.0241 
 3 <res 001   <lmer <tibbl     2.33    -2   207602    2.58 -0.242  
 4 <res 001   <lmer <tibbl     2.67    -2   266203    2.73 -0.0595 
 5 <res 001   <lmer <tibbl     3        4   797103    2.97  0.0332 
 6 <res 001   <lmer <tibbl     3        2    13801    2.97  0.0309 
 7 <res 001   <lmer <tibbl     2.33     0   853201    2.38 -0.0468 
 8 <res 001   <lmer <tibbl     3.33     4    14302    3.33  0.00589
 9 <res 001   <lmer <tibbl     3        0   354902    2.95  0.0470 
10 <res 001   <lmer <tibbl     2        0  1219107    2.04 -0.0426 
#  with 208,390 more rows, and 9 more variables: .hat <dbl>,
#   .cooksd <dbl>, .fixed <dbl>, .mu <dbl>, .offset <dbl>,
#   .sqrtXwt <dbl>, .sqrtrwt <dbl>, .weights <dbl>, .wtres <dbl>

Notice how many rows we have above. This is giving us fitted values for each person at each age across each boot sample.

We can take our code from before and modify it to give us average fit effects collapsed across each boot sample (.id, and age). This should give us 600 rows (6 age points to plot * 100 boots)

boot.results %>%
 unnest(fits) %>% 
  dplyr::select(age0, PROC_CID, .fitted, SensSeek) %>% 
  group_by(age0, .id) %>% 
  dplyr::summarize(pred = mean(.fitted))

# A tibble: 600 x 3
# Groups:   age0 [6]
    age0 .id    pred
   <dbl> <chr> <dbl>
 1    -2 001    2.75
 2    -2 002    2.80
 3    -2 003    2.78
 4    -2 004    2.77
 5    -2 005    2.80
 6    -2 006    2.81
 7    -2 007    2.77
 8    -2 008    2.78
 9    -2 009    2.78
10    -2 010    2.80
#  with 590 more rows
…
long.1 %>%  filter(groups != "CommServ") %>%
  group_by(groups) %>%
  data_grid(age0 = seq_range(age0, n = 10), PROC_CID ) %>% 
  add_predictions(cesd.2)

# A tibble: 6,890 x 4
# Groups:   groups [2]
   groups  age0 PROC_CID  pred
   <fct>  <dbl>    <dbl> <dbl>
 1 None      -2     9102 0.423
 2 None      -2    10001 0.494
 3 None      -2    12802 0.533
 4 None      -2    13801 0.564
 5 None      -2    18801 0.292
 6 None      -2    22901 0.356
 7 None      -2    23603 0.460
 8 None      -2    38803 0.496
 9 None      -2    42801 0.674
10 None      -2    43902 0.558
#  with 6,880 more rows
…
Correlation of Fixed Effects:
            (Intr) age0   grpsJl grpsCS ag0:gJ
age0        -0.378                            
groupsJail  -0.752  0.284                     
gropsCmmSrv -0.667  0.252  0.501              
age0:grpsJl  0.291 -0.770 -0.384 -0.194       
ag0:grpsCmS  0.245 -0.649 -0.184 -0.355  0.500

long.1 %>%  
  group_by(groups) %>%
  data_grid(age0 = seq_range(age0, n = 10), PROC_CID) %>% 
  add_predictions(cesd.3) 

# A tibble: 9,240 x 4
# Groups:   groups [3]
   groups  age0 PROC_CID  pred
   <fct>  <dbl>    <dbl> <dbl>
 1 None      -2     9102 0.428
 2 None      -2    10001 0.494
 3 None      -2    12802 0.530
 4 None      -2    13801 0.564
 5 None      -2    18801 0.300
 6 None      -2    22901 0.362
 7 None      -2    23603 0.464
 8 None      -2    38803 0.499
 9 None      -2    42801 0.671
10 None      -2    43902 0.559
#  with 9,230 more rows
…
When we plot these, we are plotting the simple slopes. Subbing plus and minus 1 sd and the mean into the equations above we end up with the following for the groups.

-1sd: \[\hat{Y}_{ti} = [\gamma_{00} +(\gamma_{01}*-.58)] + [\gamma_{10}  + (\gamma_{11}*-1)]*Time_{ti}\]

Mean: \[\hat{Y}_{ti} = \gamma_{00} + \gamma_{10} * (Time_{ti})\]

+1sd: \[\hat{Y}_{ti} = [\gamma_{00} +\gamma_{01}*.58] + [\gamma_{10}  + \gamma_{11}]*Time_{ti}\]

modelr

long.1 %>%  
  data_grid(age0 = seq_range(age0, n = 10), SensSeek = c(.58, 0, -.58)) 

# A tibble: 30 x 2
     age0 SensSeek
    <dbl>    <dbl>
 1 -2       -0.580
 2 -2        0    
 3 -2        0.580
 4 -0.889   -0.580
 5 -0.889    0    
 6 -0.889    0.580
 7  0.222   -0.580
 8  0.222    0    
 9  0.222    0.580
10  1.33    -0.580
#  with 20 more rows

long.1 %>%  
  data_grid(age0 = seq_range(age0, n = 10), SensSeek = c(.58, 0, -.58), PROC_CID) 

# A tibble: 27,720 x 3
    age0 SensSeek PROC_CID
   <dbl>    <dbl>    <dbl>
 1    -2   -0.580     1601
 2    -2   -0.580     9102
 3    -2   -0.580     9501
 4    -2   -0.580     9502
 5    -2   -0.580     9503
 6    -2   -0.580    10001
 7    -2   -0.580    12802
 8    -2   -0.580    13801
 9    -2   -0.580    14302
10    -2   -0.580    17502
#  with 27,710 more rows
…
