Applied Longitudinal Data Analysis: sem-longitudinal
…
   alcuse_14 alcuse_15 alcuse_16
1 1.67339200 1.8240035 1.9746149
2 0.01577357 0.4356512 0.8555288
3 1.03717373 1.9287445 2.8203152
4 0.15472328 0.9623555 1.7699878
5 0.01182452 0.1077087 0.2035930
6 2.85697940 2.9149240 2.9728685

pred2 %>% 
  rowid_to_column("ID") %>% 
  pivot_longer(cols = alcuse_14:alcuse_16 ,names_to = c("alcuse","age"), names_sep = "_", values_to = "value")

# A tibble: 246 x 4
      ID alcuse age    value
   <int> <chr>  <chr>  <dbl>
 1     1 alcuse 14    1.67  
 2     1 alcuse 15    1.82  
 3     1 alcuse 16    1.97  
 4     2 alcuse 14    0.0158
 5     2 alcuse 15    0.436 
 6     2 alcuse 16    0.856 
 7     3 alcuse 14    1.04  
 8     3 alcuse 15    1.93  
 9     3 alcuse 16    2.82  
10     4 alcuse 14    0.155 
#  with 236 more rows
…
